{
    "JSON": {
        "user_name": {
            "yvd": {
                "name": "Yvan D",
                "email": "",
                "password": "aka",
                "status": "User"
            },
            "aka": {
                "name": "Akashi S",
                "email": "",
                "password": "yvd",
                "status": "User"
            },
            "usr1": {
                "name": "user 1",
                "email": "",
                "password": "123",
                "status": "User"
            },
            "usr2": {
                "name": "user 2",
                "email": "",
                "password": "456",
                "status": "User"
            }
        }
    }
}