{
	"JSON" : {
		"Value" : {
			"1" : {
				"IBAN" : "DE36 2505 0317 4170 6845 23",
				"Saldo [€]" : 8835
			},
			"2" : {
				"IBAN" : "DE36 0683 8698 8759 7286 53",
				"Saldo [€]" : 26074
			},
			"3" : {
				"IBAN" : "DE36 1004 5334 9870 9265 27",
				"Saldo [€]" : 27871
			},
			"4" : {
				"IBAN" : "DE36 2114 0775 8698 7576 18",
				"Saldo [€]" : 54863
			},
			"5" : {
				"IBAN" : "DE36 2686 8500 1698 5541 93",
				"Saldo [€]" : 70960
			}
		}
	}
}